# eps sob(1) sob(2) sob(3) sob(4) sob(5) sob(6) sob(7) sob(8) sob(9) sob(10) 
 1.0000000000000000000000000000000000000000000000000e-04  3.0274202665039799244080330574649371882415922272755e-05  3.8043849552142393580246054403637304285172800869024e-04  4.7808138087257731475228353288718744887212247448099e-03  6.0081634232953994389639463605247260228998098636946e-02  7.5521700409896672050502320675947976679156381903178e-01  9.5008376646251453678890501395797025983381688109699e+00  1.1991836393115595562598045059498271266924235215819e+02  1.5332996628877480366779273843544902200007911003776e+03  2.0561799917631060048778548923283295131416955795336e+04  3.1833887795898161533251384984093130342065395126142e+05 
 1.3303457031250000065045625136095333756469609407420e-03  3.8584523140128281785602863299066268669709831857366e-04  4.8523623007105769039444776397329712779198096706368e-03  6.1186085128412044190594302045365719391993276474295e-02  7.8408380209620374871246629330256867575452467886890e-01  1.1428073409147368080799950780681246752368360743031e+01  2.9768764380999243908607884878830648830170477040115e+02  1.3234362340110549824024462542966858497360867581754e+04  6.5475402489644418993439382139080522985757077814757e+05  3.2876156073417332568766769980591232939525825478929e+07  1.6574688283385003929315274075139887478364802209252e+09 
 2.6222086914062500679726782672196402405650962391693e-03  7.2754091555503241838181492950133692748950028166591e-04  9.1884515006171640383253136063278682658751912690636e-03  1.2088622298982761776285329699718420716224501673376e-01  2.2388378647679994967293480378318349246740963970533e+00  8.5474038569074094923286286473857119284080399272721e+01  4.1826246408899750308617587105481460815054563095221e+03  2.1055038801197268907608591149942283830623371557214e+05  1.0662335012930328121191991158872476639908427340558e+07  5.4289882438525264193289631581740957523682537855306e+08  2.7889596103580765515570337164049362751684063991151e+10 
 3.4360823740234376110003592947467140981839383094259e-03  9.2835632153735673831011292485855390478073923671080e-04  1.1873476810070964531165104491051228664124972948484e-02  1.7988124919746472521166061381796878776961116674637e-01  5.4121886760439839440183052164481110098499893171945e+00  2.5552194591019413920525201240411861676160799415239e+02  1.2844739181345424422089380978118352954036710193178e+04  6.5168373934758492084384723958001014089063280241587e+05  3.3306996841047567387524664058485301859890078956542e+07  1.7250996458971496801585144475848262652790171413747e+09  9.2209093278436575347252183796279913751727678745043e+10 
 4.2906497407714845673226764367728874151686793152418e-03  1.1311364882093007742244423919184731012238531077681e-03  1.5102010124164143469313078950442333377452384131688e-02  3.1164283036024692964073286867947076963050224850911e-01  1.2958843930450865755427722326710544983886856753854e+01  6.4467704682997963802949404666468534350914180206876e+02  3.2719859119142296542156559979924062034364021994610e+04  1.6765052598854127238489800738499307854955543858812e+06  8.7494510669101963719552516981746069256944475517800e+07  4.8387218292148339834696850898855782338538011076503e+09  3.4432371279349663030814614789546853643527561965048e+11 
 5.1879454758569339094115241021792540578946870573798e-03  1.3444384923947875661271128781433323652900340984697e-03  2.0126205558622863225629337106717898052288493022938e-02  5.9941980357121502462824209633931153352708798118265e-01  2.8421115971169175388321501819874450675722550936412e+01  1.4377643841040483577230723466043214358391277899995e+03  7.3744847457919824061340466477647306793365890599298e+04  3.8866182034975533179847022027750368348020516667033e+06  2.3646269889829398335788199650468934252150556081667e+08  2.5848477648946922558090093191315932430417468621990e+10  4.8480598184633984427046871866811549638179737683750e+12 
 5.7532417889607669979160932863547264513769344543508e-03  1.4876130647004584332158359031742800101642338931612e-03  2.5087975989711689709784349083757894349771120404249e-02  8.9512615360713251333787300663700826516330575535357e-01  4.3878757672823772434579619205198165368426802798674e+01  2.2355015718228299167124379555425003940973464735304e+03  1.1646856831702297363480340693956176280791007122373e+05  6.8282642987567913352115705387817169940213015645279e+06  7.0701059012679185851645353902866815385159568859962e+08  1.3179544780130671164818058772259945235208486098505e+11  2.7734187440400935773794219972989540258159251247926e+13 
 6.3468029177197917659500902314824558615344466973826e-03  1.6559592243974668931610523466338963738086285922554e-03  3.2627325407759382998539116797971365065866884331524e-02  1.3298226525220067935842413468816427980516275398429e+00  6.6447322304847917969236174597574780951911770246249e+01  3.4250940208835866825258695132307050082580445567556e+03  1.9296028640642742728889276160167896427022903000097e+05  1.8181283904344472827178714198027283866171174780156e+07  3.2996789304323681725104564179868111927995521824858e+09  6.9403189007772712145180524257272932434748662917527e+11  1.4835290145164329574070534044928795338898387687757e+14 
 6.9700421029167677987451962906972304239014478355644e-03  1.8674828717513185704009151041310437326939885359508e-03  4.3885323365637280960814232379301558047225809799680e-02  1.9543852200177126137601928568029306492627108103367e+00  9.9129029724962069429719015926372913470718145792822e+01  5.3850319825386263758590992760898004302884739895270e+03  4.4834759532001616393975883065480488542262458502784e+05  7.7112281996385233746032139773315800848674173310459e+07  1.6162800286064197528733052922257363046985015313338e+10  3.4570509035405730089488704386025405921698722715538e+12  7.4209293021918159330353275918889531762533633614620e+14 
 7.6244432473735926608574373830449365007664163199282e-03  2.1495889900071641086404034471765765040253140059417e-03  6.0203068974141355347137415592775190360170660142932e-02  2.8381321146002452871209333106746998955469382443268e+00  1.4921057468975622776360620007257076135001681477346e+02  1.0849229781294494202038628330521278969978495551631e+04  1.7039172444575967267011418723553419750830015866606e+06  3.5420488322103034088650716994202526322448558378352e+08  7.5790079628689256061481691961351876151784534552170e+10  1.6289492244280197320533188372149636656655865871280e+13  3.5119770340251448839254248282855299693833006854812e+15 
 8.3115644490532587951365392466908315362958008914776e-03  2.5396925098756192254468198943252016660522472040744e-03  8.3192129346276511211494138130660594087510702408507e-02  4.1178707847793695888523368568254992877765412648263e+00  2.6355077690050289872730469770149803427105999609388e+02  3.6088907005971022339299436524485439685444831209013e+04  7.3759648392438690425022075630565722917104717096292e+06  1.5781741273927389726440649689198459126878928226747e+09  3.3969697642056316728773868005422383034046681154368e+11  7.3411089907637150223587780994896038231579026178610e+13  1.5951007068407972159819624888313717780182771934983e+16 
 8.7444508061114484620209467572263581157360660319009e-03  2.8475171127449368749658722315242652858855633884743e-03  1.0131561062945335358770951039227011838597018338529e-01  5.3092125554305253020082755725007217231250689252617e+00  4.6630811148323338129754776056626224330430667433787e+02  8.4144156902579742352248274097494607171464733778533e+04  1.7824223195605604191386659971340721274260253421035e+07  3.8330293414837168831088740359315448405520113771787e+09  8.2815430470811478689773810469972032846023211825605e+11  1.7993276451197562672541811183833861854885768046725e+14  3.9432460291792304706247553868979957443828844385233e+16 
 9.1989814810225476314735906693730135565101990350489e-03  3.2308051614891497699325464070812848845977134320501e-03  1.2445859984119211711148059548136891828353149152488e-01  7.5445494555318223928063702043659411260164473110301e+00  9.9208050995985413890673916356990046249045695148477e+02  2.0212876839622304323517327323692175873772955569817e+05  4.3342648288040230901880214622421633998537764506679e+07  9.3611148133687808416502902815458413449933112062764e+09  2.0338663712021517140003508595858923686155714953652e+12  4.4598044342279856197003814862005312409921222199157e+14  9.9453909687277065159560934858546528905327184854216e+16 
 9.6762386896792017795840836045155727820207947412174e-03  3.7087926704026004318744797079434379813430515426888e-03  1.5729590531394114183632157066137546020839278046161e-01  1.3041407676630353413761221211819934224708830190159e+01  2.3169034340251028611702953016538117114137545808672e+03  4.9150942615119448982300113820987570470805275335405e+05  1.0606471933985031125784463492313271813492643592854e+08  2.3045350169444204609546291649835336754762689455476e+10  5.0581802940702972325383119070034308528788405450636e+12  1.1326448049543383305918426750745608676496481173516e+15  2.6582669698905774763513993792752639580590487784298e+17 
 1.0177358758768688656294578855173260428543263240918e-02  4.3181767888451796944366312255613022421348960035806e-03  2.1792147490467364291983208598862318231986119318782e-01  2.7527950477471476483678640825113554645092843002426e+01  5.5982060234826202170097080131497075335156354060694e+03  1.2045789688824587529165556577733268303931719580360e+06  2.6173161705688037707812041055827004895628616870065e+08  5.7535373538458598195919389958169169153496038213863e+10  1.2968673651888163467938764753200761827785848763816e+13  3.1189437498772790381670881908808397275690997139637e+15  8.8535787380340128131003252990924174369419559462179e+17 
 1.0703534831312649899094800420559733881338899434593e-02  5.1778844859350854624272301403009916278139429401446e-03  3.6813180389924601907366567254614475936013992397963e-01  6.4401204991187828866895446506825990173631828031180e+01  1.3700644635954810687625196046271994533052940859825e+04  2.9758016279247297795548373298960525133660532827680e+06  6.5579447587490268543263976193341501297871648861395e+08  1.4966531846988103138450635736792639465871754051109e+11  3.8354957593297714223428784076794923819754292467804e+13  1.4288890254908743850253018012571544236275449917543e+16  9.2006806613699196913673659624576936128887845541527e+18 
 1.1035025757015345483811458378988638949007694730649e-02  5.9874552853775208755901183571617610009869643097591e-03  5.6382549593366577872568110552924264466093321103438e-01  1.0977869260991154986648165433722424279637766132781e+02  2.3635857139769875874769758606652019896680679799139e+04  5.1787395924448107139887457662396399705532771860119e+06  1.1706889990366252183119913303099418371941832296933e+09  3.0081971810495469289533411534391229170274743349943e+11  1.2515534284230425437495850574138165605188192175455e+14  9.1555699127077857870784008025195571461228267159955e+16  7.9643217206408022679359008001973181000286641545600e+19 
 1.1383091229003175862485103562116578762447948831817e-02  7.3448044571384492665181394780370625564686317210523e-03  9.2011544000301456789609716719371866247160663923489e-01  1.8979316605272036367125504897351041134174389288143e+02  4.1298670097240247547947402136018685643292283707168e+04  9.2881503699155515155004107745097105151484310742945e+06  2.4730364377900731348639796605863912339850604011469e+09  1.2209002367973826214369034232364266793761084159492e+12  9.8660557322877349910965610879118924665151090368958e+14  8.7886576339988509238512559319834533585077864138204e+17  7.9480999486449356390295559658148090232332794866464e+20 
 1.1748559974590397775549643047517385187318214936319e-02  9.8488899885716344719287181501590093711260051689901e-03  1.5566235459199227941111241423579243383514478388154e+00  3.3143514464721479485540071442001320918331699041997e+02  7.4650115710761665463828442490607325257646971771016e+04  2.1872846087974075274204137774657996084067742093170e+07  1.3287891526339747113620509093264738708161071348720e+10  1.1440785989751537182172207664273399881861955202394e+13  1.0319101040958452873030663613939347804621602415579e+16  9.3750841891340502226715567426377200414793514039978e+18  8.5460772982379976599271871904046772558217629301854e+21 
 1.1978805284310347581997558371715314908724026304833e-02  1.2334409195321565750581919173477071540735814269768e-02  2.1582317289134848976785138611736096224454622397337e+00  4.7033983293784131320598394124606647604255456998380e+02  1.2332589615817604327285053820782942771985329199323e+05  6.4837158800735812778225489858989493446917591102412e+07  5.4641209922365112039076214862324206992402502908469e+10  4.9281731399675296539599232330664455979373739350856e+13  4.4841340493690491899589190098393047895198168608498e+16  4.0970778584417817575277818500797039379087970130284e+19  3.7626995779453370171996433922207144324557291833140e+22 
 1.2220562859516294888992815228644686256844554014827e-02  1.5987953869454333140055245920307898131054260451714e-02  3.0307880466844014211819565529610446485916497310578e+00  7.3580665515083989527536496844652416400298802153607e+02  3.3652811021300551810934004525718331142654635903139e+05  2.7578167024152848372258290580782241643341199122733e+08  2.4877577246724421040102374858146717426305889506716e+11  2.2692739151262630176363252389102276975890933955598e+14  2.0820378229692688534654684392801744767958105386420e+17  1.9274001866219682556558615298260049447870354724678e+20  1.8181386369137464650773695450716355817425663075191e+23 
 1.2253461230350320195050203231965005370293698906355e-02  1.6582679972900109868398602858785963357576673364176e-02  3.1769908443425383279223594733254678365011510663549e+00  7.9939012948590743160465239038626862910084927660693e+02  4.0200076071428507849655960358964567910589245931936e+05  3.3795648378654429934819860872984477127324794179605e+08  3.0574971888896213108845858518333429165292401748656e+11  2.7924563792441423687380557786337370473129534765984e+14  2.5666670887693786044758914793162493364533951123528e+17  2.3848117606043894649819734534467729277103681341668e+20  2.2704298698923353800091723002312783758321410178752e+23 
 1.2288004519726046767871441786355004802604572758809e-02  1.7235106858995852930733412811446776823308877208648e-02  3.3409006531134657279717437921864240975660809856696e+00  8.8101775261026435909175877217827113806103952822581e+02  4.8769012940276231671948060090036145085063892025706e+05  4.1857479389455880461424446185289339702262703839597e+08  3.7964005524934328209184343148968752226430373102519e+11  3.4721894516496455315748398773591203334617216872827e+14  3.1987028610544724419521408455007264373829427659757e+17  2.9869863053109576292886283971784344288472218797764e+20  2.8811951830314071742557881589238653848682931249936e+23 
 1.2324274973570559670867772476913351852760322097120e-02  1.7952369359099194827862686616169301777484648826871e-02  3.5269807591008832305279002370478167872552443892529e+00  9.8838224513166857720625866420516503061458650546417e+02  6.0077299029615404417699746169897643711743547065775e+05  5.2417297931938410411956533999814048984699447134262e+08  4.7648655682583809159259579701463611321226175187581e+11  4.3651528018850895525575418013844408292745144963534e+14  4.0333057244377548138919793460904487441366244107058e+17  3.7929616461336246531364406759696323320710666974516e+20  3.7287026698588776277562648504499254090220889959462e+23 
 1.2362358950107298220624651420870906352089283600857e-02  1.8742969809687434492964091881738802345305475175682e-02  3.7419091230441158249337721715227854174564987448594e+00  1.1327167824729919721788176058219659980080357257910e+03  7.5133624565881574905396901940491939222930743680024e+05  6.6397893103765553306832353661406034767643846242054e+08  6.0484586786298851090829932355517120998201027430306e+11  5.5522950867732852461819332857575668925037600275423e+14  5.1509885478471094883747180222548065284343784849020e+17  4.8939408835368973144859426541538148601332828496964e+20  4.9465621767521621181161989863285254762295196552267e+23 
 1.2402347125470873699560642616841193249414246744618e-02  1.9617339936293968718195117761570751592860403004176e-02  3.9960619660328681118368321862778202578491634420598e+00  1.3303262503990610507624318694123982582834964540703e+03  9.5373117603925800085462871427928760901847814339819e+05  8.5117475955839434990897817825366104478710364381840e+08  7.7699872546597344616828264717807498757581642227541e+11  7.1511628885466721689571372298672210052945525209646e+14  6.6725178893961848805262128411463932761580562823187e+17  6.4378438018073550412846054258750635701221815452527e+20  6.7763670053133237255482598207268434977365644138938e+23 
 1.2444334709602627954219265092665591973393889801613e-02  2.0588808798338080754716182449985796625294675436225e-02  4.3060736539586974324551471463065795142480215069974e+00  1.6047803713476149914110722073209399408484591249729e+03  1.2286319213961193538314068822746719149332912162603e+06  1.1048267052367858700642978466505569881750283336042e+09  1.0108253516947618159808545337858449101796442787492e+12  9.3359401314594832940682170377281266840231638983468e+14  8.7857691651653470367600601028848292067407097736625e+17  8.6796298318656984809568932650479907254432067176311e+20  9.6816690855807429510258361054033279861302520809155e+23 
 1.2488421672940969923475441998339588068313138893923e-02  2.1675338708200139245587432677094916521078172175462e-02  4.6992079827248390269241928811625076174748730897502e+00  1.9901840300538454347027634888884562773778109793438e+03  1.6062003865671257965089122872926859701573720202427e+06  1.4528788454542891931833965586040055488447827329598e+09  1.3327886364078417882186453630879174287136463363483e+12  1.2371576748045145857592638429773575752162902848833e+15  1.1797923496360562778404180476955468633517714430738e+18  1.2091748101119556032787437825417399773464576507852e+21  1.4613699498530411589209512587523686488818932821370e+24 
 1.2534712984446228993152282220658580357261914582984e-02  2.2902741386755555509826870103625472412281634800250e-02  5.2206310437498085582376180586286576877433876407242e+00  2.5362551560288000591147014914921935852442202058268e+03  2.1310117176305059255982146765018318305161599427107e+06  1.9368776133182658533766846908419695491892535109472e+09  1.7828339277620918892525634674096137551459540767316e+12  1.6675785459807487038172962127190204263486659371912e+15  1.6246279078539228544486436082219034197712034681322e+18  1.7627107159304835865445784782352812289795819961684e+21  2.3738608979565046595734890945842735938647969391003e+24 
 1.2583318861526751018368711649022883556352075924567e-02  2.4310786308416605391671274877971373938888267827768e-02  5.9449784105202103514735782609039343640376108427812e+00  3.3163990144855100318647956152676138632801026109620e+03  2.8698193496869892258304227215667464107059842385083e+06  2.6195899940178241230767498128411012313264399592653e+09  2.4228158017270180707955749520889007400809083933423e+12  2.2941944059348374472320914156879297065430588170697e+15  2.3159540109095513373477271856877794830471563915147e+18  2.7441138506964907987029583820693844998000953147832e+21  4.3048869125130056318767956001042377241690443289486e+24 
 1.2634355032461299147004497103481231367168904289467e-02  2.5964991377808293402348918653658735488507457049220e-02  6.9936545534431905853646203614039138705883263645124e+00  4.4406449976632106667806070465876420142397368406290e+03  3.9239717627362975502333507354952376212163671466169e+06  3.5976576600059382511048712930109257683483613210820e+09  3.3520232479899241222614570268664719512486514550490e+12  3.2413161964964266725249357961652713003813287048630e+15  3.4778139313543388705657110211910326061944320714566e+18  4.7488035580332247559454726650113382089336566817056e+21  9.4183608729794567615767474512215062954951215989717e+24 
 1.2653646705074558339016879459015889130228800665104e-02  2.6651504585885796160835637771511825548371165763164e-02  7.4931233564706150526494133213971675720791877670715e+00  4.9681944487429975142518432018192875437492721953013e+03  4.4165803861210148361237797271878311213584397585175e+06  4.0566121332959674664165103679378465476157936896557e+09  3.7938623886703972283980148316856739533333831350029e+12  3.7101343844345303769171717877601017177851341599384e+15  4.1139589243796876722568159382391104162005403264471e+18  6.0531845407614930109910572452854875247740383861835e+21  1.3388306677636330400487951370949006998153005634999e+25 
 1.2673902961318480491486603297078116499908660749803e-02  2.7417440361569136249565902684761098242504877752412e-02  8.0927021535222384083431471446932619635846486052893e+00  5.5942854354688645754004794546810109181646874732093e+03  5.0003858585996618904469989464382891963185828091385e+06  4.6022985056724961932224597692682177645499330491321e+09  4.3246970393974933551284102793020487023508800763241e+12  4.2917509222919726900343207362239255340636125557115e+15  4.9691348322184466116193618679274528403324135609741e+18  8.0441490247935790424320774713887886330865893099844e+21  2.0017595060673135379693624751076308181173301266531e+25 
